Project title
…
    fc = if_else(is.na(fc), 0, 1),
    mwid = if_else(is.na(mwid), 0, 1),
    f_mfe = if_else(is.na(f_mfe), 0, 1),
    p_fa = if_else(is.na(p_fa), 0, 1),
    om = if_else(is.na(om), 0, 1),
    ild = if_else(is.na(ild), 0, 1),
    # calculate the number of years between conviction and exoneration
    diff_conv_ex = exonerated - convicted,
    # column that designates whether or not they had the highest severity punishment
    sentence_severity = if_else(sentence %in% most_severe, "Yes", "No")
  ) |>
  select(-om_tags, -tags_vc, -list_addl_crimes_recode, -tags, -x)
us_exonerations

# A tibble: 3,284 × 36
   last_name first_name     age race     sex    state county worst_crime_display
   <chr>     <chr>        <dbl> <chr>    <chr>  <chr> <chr>  <chr>              
 1 Abbitt    Joseph          31 Black    Male   Nort… Forsy… Child Sex Abuse    
 2 Abbott    Cinque          19 Black    Male   Illi… Cook   Drug Possession or…
 3 Abdal     Warith Habib    43 Black    Male   New … Erie   Sexual Assault     
 4 Abernathy Christopher     17 White    Male   Illi… Cook   Murder             
 5 Abney     Quentin         32 Black    Male   New … New Y… Robbery            
 6 Abrego    Eruby           20 Hispanic Male   Illi… Cook   Murder             
 7 Acero     Longino         35 Hispanic Male   Cali… Santa… Sex Offender Regis…
 8 Adams     Anthony         26 Hispanic Male   Cali… Los A… Manslaughter       
 9 Adams     Cheryl          26 White    Female Mass… Essex  Theft              
10 Adams     Darryl          25 Black    Male   Texas Dallas Sexual Assault     
# ℹ 3,274 more rows
# ℹ 28 more variables: sentence <chr>, convicted <dbl>, exonerated <dbl>,
#   dna <dbl>, fc <dbl>, mwid <dbl>, f_mfe <dbl>, p_fa <dbl>, om <dbl>,
#   ild <dbl>, posting_date <chr>, ars <dbl>, cdc <dbl>, ciu <dbl>, csh <dbl>,
#   cv <dbl>, fem <dbl>, fed <dbl>, hom <dbl>, ji <dbl>, m <dbl>, nc <dbl>,
#   p <dbl>, ph <dbl>, sbs <dbl>, sa <dbl>, diff_conv_ex <dbl>,
#   sentence_severity <chr>
…
